-- Merging decision tree log ---
manifest
ADDED from F:\Android\WALTON PROJECT\waltonsms\app\src\main\AndroidManifest.xml:2:1-64:12
INJECTED from F:\Android\WALTON PROJECT\waltonsms\app\src\main\AndroidManifest.xml:2:1-64:12
INJECTED from F:\Android\WALTON PROJECT\waltonsms\app\src\main\AndroidManifest.xml:2:1-64:12
INJECTED from F:\Android\WALTON PROJECT\waltonsms\app\src\main\AndroidManifest.xml:2:1-64:12
MERGED from [com.karumi:dexter:5.0.0] C:\Users\Mithun\.gradle\caches\transforms-2\files-2.1\a4abd16530d966f7b18d9f896bc33d5b\jetified-dexter-5.0.0\AndroidManifest.xml:17:1-32:12
MERGED from [com.google.android.material:material:1.0.0] C:\Users\Mithun\.gradle\caches\transforms-2\files-2.1\c7eb9cd3508ac3959447c14fd76c9fb9\material-1.0.0\AndroidManifest.xml:17:1-24:12
MERGED from [androidx.appcompat:appcompat:1.0.0] C:\Users\Mithun\.gradle\caches\transforms-2\files-2.1\7df26908078c74ff4eeaf46e7b6b476c\appcompat-1.0.0\AndroidManifest.xml:17:1-22:12
MERGED from [androidx.constraintlayout:constraintlayout:1.1.3] C:\Users\Mithun\.gradle\caches\transforms-2\files-2.1\3ec6fa8458ddbe732478393a9f9e6c77\constraintlayout-1.1.3\AndroidManifest.xml:2:1-11:12
MERGED from [androidx.cardview:cardview:1.0.0] C:\Users\Mithun\.gradle\caches\transforms-2\files-2.1\4fe44ae24daa7cfa2dd483a5d3b65a2f\cardview-1.0.0\AndroidManifest.xml:17:1-22:12
MERGED from [androidx.legacy:legacy-support-v4:1.0.0] C:\Users\Mithun\.gradle\caches\transforms-2\files-2.1\062eb74c1a6fe650432564db4113c6b5\legacy-support-v4-1.0.0\AndroidManifest.xml:17:1-22:12
MERGED from [io.reactivex.rxjava2:rxandroid:2.1.0] C:\Users\Mithun\.gradle\caches\transforms-2\files-2.1\c5a1b782cabb9bbf3527865757a34b50\rxandroid-2.1.0\AndroidManifest.xml:15:1-20:12
MERGED from [com.google.android.gms:play-services-auth:16.0.1] C:\Users\Mithun\.gradle\caches\transforms-2\files-2.1\0d372dc0df938af8b1811fd3551e1578\jetified-play-services-auth-16.0.1\AndroidManifest.xml:17:1-39:12
MERGED from [com.google.android.gms:play-services-vision:19.0.0] C:\Users\Mithun\.gradle\caches\transforms-2\files-2.1\3cee36f396115dbe80794302ed809348\play-services-vision-19.0.0\AndroidManifest.xml:2:1-9:12
MERGED from [com.google.android.gms:play-services-auth-api-phone:16.0.0] C:\Users\Mithun\.gradle\caches\transforms-2\files-2.1\dc1726ffde18ef178e4135b68a19e71e\jetified-play-services-auth-api-phone-16.0.0\AndroidManifest.xml:2:1-7:12
MERGED from [com.google.android.gms:play-services-auth-base:16.0.0] C:\Users\Mithun\.gradle\caches\transforms-2\files-2.1\02054797e6985cbc8fdc79c98fbe3cef\jetified-play-services-auth-base-16.0.0\AndroidManifest.xml:2:1-7:12
MERGED from [com.google.android.gms:play-services-vision-common:19.0.0] C:\Users\Mithun\.gradle\caches\transforms-2\files-2.1\3a06dcdb95a65fffbd805ec2d1292acf\play-services-vision-common-19.0.0\AndroidManifest.xml:2:1-9:12
MERGED from [com.google.android.gms:play-services-clearcut:17.0.0] C:\Users\Mithun\.gradle\caches\transforms-2\files-2.1\1e0b3fde68e1605153cab3775f0b4184\play-services-clearcut-17.0.0\AndroidManifest.xml:17:1-24:12
MERGED from [com.google.android.gms:play-services-flags:17.0.0] C:\Users\Mithun\.gradle\caches\transforms-2\files-2.1\d15d843afc1e2bc6fd4b5f463b510e1d\play-services-flags-17.0.0\AndroidManifest.xml:17:1-22:12
MERGED from [com.google.android.gms:play-services-phenotype:17.0.0] C:\Users\Mithun\.gradle\caches\transforms-2\files-2.1\dcda69aba665e4ef88212d91fa49c817\play-services-phenotype-17.0.0\AndroidManifest.xml:17:1-24:12
MERGED from [com.google.android.gms:play-services-base:17.0.0] C:\Users\Mithun\.gradle\caches\transforms-2\files-2.1\77c2fc448e2bd0738fd67dce062b1efd\play-services-base-17.0.0\AndroidManifest.xml:17:1-29:12
MERGED from [com.google.android.gms:play-services-tasks:17.0.0] C:\Users\Mithun\.gradle\caches\transforms-2\files-2.1\2b8a3547a6423f6fb15f19a78415dd89\play-services-tasks-17.0.0\AndroidManifest.xml:2:1-9:12
MERGED from [com.google.android.gms:play-services-basement:17.0.0] C:\Users\Mithun\.gradle\caches\transforms-2\files-2.1\bfab97caa09a1c39181f59d97551df5a\jetified-play-services-basement-17.0.0\AndroidManifest.xml:17:1-28:12
MERGED from [androidx.fragment:fragment:1.0.0] C:\Users\Mithun\.gradle\caches\transforms-2\files-2.1\4f680f5cab482b7966fa9c805ac0cb70\fragment-1.0.0\AndroidManifest.xml:17:1-22:12
MERGED from [androidx.vectordrawable:vectordrawable-animated:1.0.0] C:\Users\Mithun\.gradle\caches\transforms-2\files-2.1\61965e5c06bda9445c13760f9d9ef779\vectordrawable-animated-1.0.0\AndroidManifest.xml:17:1-22:12
MERGED from [androidx.recyclerview:recyclerview:1.0.0] C:\Users\Mithun\.gradle\caches\transforms-2\files-2.1\ceb81553a8d4d1147c847656f2ca2121\recyclerview-1.0.0\AndroidManifest.xml:17:1-22:12
MERGED from [androidx.legacy:legacy-support-core-ui:1.0.0] C:\Users\Mithun\.gradle\caches\transforms-2\files-2.1\ec593f8d91037f6ef1bbcd6a177afa1c\legacy-support-core-ui-1.0.0\AndroidManifest.xml:17:1-22:12
MERGED from [androidx.legacy:legacy-support-core-utils:1.0.0] C:\Users\Mithun\.gradle\caches\transforms-2\files-2.1\4f8b5527496d67480951cc322460db7f\legacy-support-core-utils-1.0.0\AndroidManifest.xml:17:1-22:12
MERGED from [androidx.vectordrawable:vectordrawable:1.0.0] C:\Users\Mithun\.gradle\caches\transforms-2\files-2.1\fb64895045b937c99805be897a2a6961\vectordrawable-1.0.0\AndroidManifest.xml:17:1-22:12
MERGED from [androidx.transition:transition:1.0.0] C:\Users\Mithun\.gradle\caches\transforms-2\files-2.1\d2cae29ea156ecc28d8f5099dc624ed2\transition-1.0.0\AndroidManifest.xml:17:1-22:12
MERGED from [androidx.media:media:1.0.0] C:\Users\Mithun\.gradle\caches\transforms-2\files-2.1\767612e54049c1347a891905a7e9d5e4\media-1.0.0\AndroidManifest.xml:17:1-22:12
MERGED from [androidx.loader:loader:1.0.0] C:\Users\Mithun\.gradle\caches\transforms-2\files-2.1\5276819c062a92c029464122749254f1\loader-1.0.0\AndroidManifest.xml:17:1-22:12
MERGED from [androidx.viewpager:viewpager:1.0.0] C:\Users\Mithun\.gradle\caches\transforms-2\files-2.1\4932f7e67b26f042b51fa62f1aa4816d\viewpager-1.0.0\AndroidManifest.xml:17:1-22:12
MERGED from [androidx.coordinatorlayout:coordinatorlayout:1.0.0] C:\Users\Mithun\.gradle\caches\transforms-2\files-2.1\8849109129fcb2f39779166fb64480b1\coordinatorlayout-1.0.0\AndroidManifest.xml:17:1-22:12
MERGED from [androidx.drawerlayout:drawerlayout:1.0.0] C:\Users\Mithun\.gradle\caches\transforms-2\files-2.1\00bc847ce5b9e3ce7b40d465bffbf9e9\drawerlayout-1.0.0\AndroidManifest.xml:17:1-22:12
MERGED from [androidx.slidingpanelayout:slidingpanelayout:1.0.0] C:\Users\Mithun\.gradle\caches\transforms-2\files-2.1\5ad830c9e1047f79e3f0f7e9e42ab8ab\slidingpanelayout-1.0.0\AndroidManifest.xml:17:1-22:12
MERGED from [androidx.customview:customview:1.0.0] C:\Users\Mithun\.gradle\caches\transforms-2\files-2.1\a3c457ded457b98b207b4f227d629399\customview-1.0.0\AndroidManifest.xml:17:1-22:12
MERGED from [androidx.swiperefreshlayout:swiperefreshlayout:1.0.0] C:\Users\Mithun\.gradle\caches\transforms-2\files-2.1\3d4a3c67e39fa8d6d0c0f126c28b81d8\swiperefreshlayout-1.0.0\AndroidManifest.xml:17:1-22:12
MERGED from [androidx.asynclayoutinflater:asynclayoutinflater:1.0.0] C:\Users\Mithun\.gradle\caches\transforms-2\files-2.1\82b148795609bbbaf8e825fc2ff2a6bf\asynclayoutinflater-1.0.0\AndroidManifest.xml:17:1-22:12
MERGED from [androidx.core:core:1.0.0] C:\Users\Mithun\.gradle\caches\transforms-2\files-2.1\246153fc0686d4ff78c8961ca91329b7\core-1.0.0\AndroidManifest.xml:17:1-24:12
MERGED from [androidx.versionedparcelable:versionedparcelable:1.0.0] C:\Users\Mithun\.gradle\caches\transforms-2\files-2.1\c70a8bef3ed62675d42960780f476d6e\versionedparcelable-1.0.0\AndroidManifest.xml:17:1-25:12
MERGED from [androidx.cursoradapter:cursoradapter:1.0.0] C:\Users\Mithun\.gradle\caches\transforms-2\files-2.1\fb2fbe77879a57ea0c5dfd6fe59ba874\cursoradapter-1.0.0\AndroidManifest.xml:17:1-22:12
MERGED from [androidx.lifecycle:lifecycle-runtime:2.0.0] C:\Users\Mithun\.gradle\caches\transforms-2\files-2.1\4c7e5b6d46acfb24c04b3a473c53b419\lifecycle-runtime-2.0.0\AndroidManifest.xml:17:1-22:12
MERGED from [androidx.documentfile:documentfile:1.0.0] C:\Users\Mithun\.gradle\caches\transforms-2\files-2.1\f582580d3eb247a74d915a27810a4674\documentfile-1.0.0\AndroidManifest.xml:17:1-22:12
MERGED from [androidx.localbroadcastmanager:localbroadcastmanager:1.0.0] C:\Users\Mithun\.gradle\caches\transforms-2\files-2.1\c75155371656c04dff3a027cdeb13e8a\localbroadcastmanager-1.0.0\AndroidManifest.xml:17:1-22:12
MERGED from [androidx.print:print:1.0.0] C:\Users\Mithun\.gradle\caches\transforms-2\files-2.1\53b4a4cf87c0ff501a8c414cec884555\print-1.0.0\AndroidManifest.xml:17:1-22:12
MERGED from [androidx.lifecycle:lifecycle-viewmodel:2.0.0] C:\Users\Mithun\.gradle\caches\transforms-2\files-2.1\94d1bdd9d3f5e77b2c2deb76d0ecef77\lifecycle-viewmodel-2.0.0\AndroidManifest.xml:17:1-22:12
MERGED from [androidx.interpolator:interpolator:1.0.0] C:\Users\Mithun\.gradle\caches\transforms-2\files-2.1\3a992d8307f21a8f15eb649383ba6a6a\interpolator-1.0.0\AndroidManifest.xml:17:1-22:12
MERGED from [androidx.lifecycle:lifecycle-livedata:2.0.0] C:\Users\Mithun\.gradle\caches\transforms-2\files-2.1\63647da4654da12a6f2785cfbbad8123\lifecycle-livedata-2.0.0\AndroidManifest.xml:17:1-22:12
MERGED from [androidx.lifecycle:lifecycle-livedata-core:2.0.0] C:\Users\Mithun\.gradle\caches\transforms-2\files-2.1\733fc1d306cee2c05d3e1fb0b7527020\lifecycle-livedata-core-2.0.0\AndroidManifest.xml:17:1-22:12
MERGED from [androidx.arch.core:core-runtime:2.0.0] C:\Users\Mithun\.gradle\caches\transforms-2\files-2.1\fdd65d8b6066fd289a68b42931dc03a2\core-runtime-2.0.0\AndroidManifest.xml:17:1-22:12
INJECTED from F:\Android\WALTON PROJECT\waltonsms\app\src\main\AndroidManifest.xml:2:1-64:12
INJECTED from F:\Android\WALTON PROJECT\waltonsms\app\src\main\AndroidManifest.xml:2:1-64:12
INJECTED from F:\Android\WALTON PROJECT\waltonsms\app\src\main\AndroidManifest.xml:2:1-64:12
	package
		ADDED from F:\Android\WALTON PROJECT\waltonsms\app\src\main\AndroidManifest.xml:4:5-45
		INJECTED from F:\Android\WALTON PROJECT\waltonsms\app\src\main\AndroidManifest.xml
		INJECTED from F:\Android\WALTON PROJECT\waltonsms\app\src\main\AndroidManifest.xml
	android:versionName
		ADDED from F:\Android\WALTON PROJECT\waltonsms\app\src\main\AndroidManifest.xml:6:5-30
		INJECTED from F:\Android\WALTON PROJECT\waltonsms\app\src\main\AndroidManifest.xml
		INJECTED from F:\Android\WALTON PROJECT\waltonsms\app\src\main\AndroidManifest.xml
	xmlns:tools
		ADDED from F:\Android\WALTON PROJECT\waltonsms\app\src\main\AndroidManifest.xml:3:5-51
	xmlns:android
		ADDED from F:\Android\WALTON PROJECT\waltonsms\app\src\main\AndroidManifest.xml:2:11-69
	android:versionCode
		ADDED from F:\Android\WALTON PROJECT\waltonsms\app\src\main\AndroidManifest.xml:5:5-28
		INJECTED from F:\Android\WALTON PROJECT\waltonsms\app\src\main\AndroidManifest.xml
		INJECTED from F:\Android\WALTON PROJECT\waltonsms\app\src\main\AndroidManifest.xml
uses-permission#android.permission.WRITE_EXTERNAL_STORAGE
ADDED from F:\Android\WALTON PROJECT\waltonsms\app\src\main\AndroidManifest.xml:8:5-81
	android:name
		ADDED from F:\Android\WALTON PROJECT\waltonsms\app\src\main\AndroidManifest.xml:8:22-78
uses-permission#android.permission.READ_EXTERNAL_STORAGE
ADDED from F:\Android\WALTON PROJECT\waltonsms\app\src\main\AndroidManifest.xml:9:5-80
	android:name
		ADDED from F:\Android\WALTON PROJECT\waltonsms\app\src\main\AndroidManifest.xml:9:22-77
uses-permission#android.permission.ACCESS_NETWORK_STATE
ADDED from F:\Android\WALTON PROJECT\waltonsms\app\src\main\AndroidManifest.xml:10:5-79
	android:name
		ADDED from F:\Android\WALTON PROJECT\waltonsms\app\src\main\AndroidManifest.xml:10:22-76
uses-permission#android.permission.INTERNET
ADDED from F:\Android\WALTON PROJECT\waltonsms\app\src\main\AndroidManifest.xml:11:5-83
	android:name
		ADDED from F:\Android\WALTON PROJECT\waltonsms\app\src\main\AndroidManifest.xml:11:22-64
uses-permission#android.permission.READ_PHONE_NUMBERS
ADDED from F:\Android\WALTON PROJECT\waltonsms\app\src\main\AndroidManifest.xml:12:5-77
	android:name
		ADDED from F:\Android\WALTON PROJECT\waltonsms\app\src\main\AndroidManifest.xml:12:22-74
uses-permission#android.permission.CAMERA
ADDED from F:\Android\WALTON PROJECT\waltonsms\app\src\main\AndroidManifest.xml:13:5-65
	android:name
		ADDED from F:\Android\WALTON PROJECT\waltonsms\app\src\main\AndroidManifest.xml:13:22-62
uses-permission#android.permission.READ_PHONE_STATE
ADDED from F:\Android\WALTON PROJECT\waltonsms\app\src\main\AndroidManifest.xml:14:5-75
	android:name
		ADDED from F:\Android\WALTON PROJECT\waltonsms\app\src\main\AndroidManifest.xml:14:22-72
uses-permission#android.permission.SEND_SMS
ADDED from F:\Android\WALTON PROJECT\waltonsms\app\src\main\AndroidManifest.xml:15:5-83
	android:name
		ADDED from F:\Android\WALTON PROJECT\waltonsms\app\src\main\AndroidManifest.xml:15:22-64
application
ADDED from F:\Android\WALTON PROJECT\waltonsms\app\src\main\AndroidManifest.xml:17:5-62:19
MERGED from [com.karumi:dexter:5.0.0] C:\Users\Mithun\.gradle\caches\transforms-2\files-2.1\a4abd16530d966f7b18d9f896bc33d5b\jetified-dexter-5.0.0\AndroidManifest.xml:26:5-30:19
MERGED from [com.karumi:dexter:5.0.0] C:\Users\Mithun\.gradle\caches\transforms-2\files-2.1\a4abd16530d966f7b18d9f896bc33d5b\jetified-dexter-5.0.0\AndroidManifest.xml:26:5-30:19
MERGED from [com.google.android.material:material:1.0.0] C:\Users\Mithun\.gradle\caches\transforms-2\files-2.1\c7eb9cd3508ac3959447c14fd76c9fb9\material-1.0.0\AndroidManifest.xml:22:5-20
MERGED from [com.google.android.material:material:1.0.0] C:\Users\Mithun\.gradle\caches\transforms-2\files-2.1\c7eb9cd3508ac3959447c14fd76c9fb9\material-1.0.0\AndroidManifest.xml:22:5-20
MERGED from [androidx.constraintlayout:constraintlayout:1.1.3] C:\Users\Mithun\.gradle\caches\transforms-2\files-2.1\3ec6fa8458ddbe732478393a9f9e6c77\constraintlayout-1.1.3\AndroidManifest.xml:9:5-20
MERGED from [androidx.constraintlayout:constraintlayout:1.1.3] C:\Users\Mithun\.gradle\caches\transforms-2\files-2.1\3ec6fa8458ddbe732478393a9f9e6c77\constraintlayout-1.1.3\AndroidManifest.xml:9:5-20
MERGED from [com.google.android.gms:play-services-auth:16.0.1] C:\Users\Mithun\.gradle\caches\transforms-2\files-2.1\0d372dc0df938af8b1811fd3551e1578\jetified-play-services-auth-16.0.1\AndroidManifest.xml:22:5-37:19
MERGED from [com.google.android.gms:play-services-auth:16.0.1] C:\Users\Mithun\.gradle\caches\transforms-2\files-2.1\0d372dc0df938af8b1811fd3551e1578\jetified-play-services-auth-16.0.1\AndroidManifest.xml:22:5-37:19
MERGED from [com.google.android.gms:play-services-vision:19.0.0] C:\Users\Mithun\.gradle\caches\transforms-2\files-2.1\3cee36f396115dbe80794302ed809348\play-services-vision-19.0.0\AndroidManifest.xml:7:5-20
MERGED from [com.google.android.gms:play-services-vision:19.0.0] C:\Users\Mithun\.gradle\caches\transforms-2\files-2.1\3cee36f396115dbe80794302ed809348\play-services-vision-19.0.0\AndroidManifest.xml:7:5-20
MERGED from [com.google.android.gms:play-services-vision-common:19.0.0] C:\Users\Mithun\.gradle\caches\transforms-2\files-2.1\3a06dcdb95a65fffbd805ec2d1292acf\play-services-vision-common-19.0.0\AndroidManifest.xml:7:5-20
MERGED from [com.google.android.gms:play-services-vision-common:19.0.0] C:\Users\Mithun\.gradle\caches\transforms-2\files-2.1\3a06dcdb95a65fffbd805ec2d1292acf\play-services-vision-common-19.0.0\AndroidManifest.xml:7:5-20
MERGED from [com.google.android.gms:play-services-clearcut:17.0.0] C:\Users\Mithun\.gradle\caches\transforms-2\files-2.1\1e0b3fde68e1605153cab3775f0b4184\play-services-clearcut-17.0.0\AndroidManifest.xml:22:5-20
MERGED from [com.google.android.gms:play-services-clearcut:17.0.0] C:\Users\Mithun\.gradle\caches\transforms-2\files-2.1\1e0b3fde68e1605153cab3775f0b4184\play-services-clearcut-17.0.0\AndroidManifest.xml:22:5-20
MERGED from [com.google.android.gms:play-services-phenotype:17.0.0] C:\Users\Mithun\.gradle\caches\transforms-2\files-2.1\dcda69aba665e4ef88212d91fa49c817\play-services-phenotype-17.0.0\AndroidManifest.xml:22:5-20
MERGED from [com.google.android.gms:play-services-phenotype:17.0.0] C:\Users\Mithun\.gradle\caches\transforms-2\files-2.1\dcda69aba665e4ef88212d91fa49c817\play-services-phenotype-17.0.0\AndroidManifest.xml:22:5-20
MERGED from [com.google.android.gms:play-services-base:17.0.0] C:\Users\Mithun\.gradle\caches\transforms-2\files-2.1\77c2fc448e2bd0738fd67dce062b1efd\play-services-base-17.0.0\AndroidManifest.xml:22:5-27:19
MERGED from [com.google.android.gms:play-services-base:17.0.0] C:\Users\Mithun\.gradle\caches\transforms-2\files-2.1\77c2fc448e2bd0738fd67dce062b1efd\play-services-base-17.0.0\AndroidManifest.xml:22:5-27:19
MERGED from [com.google.android.gms:play-services-tasks:17.0.0] C:\Users\Mithun\.gradle\caches\transforms-2\files-2.1\2b8a3547a6423f6fb15f19a78415dd89\play-services-tasks-17.0.0\AndroidManifest.xml:7:5-20
MERGED from [com.google.android.gms:play-services-tasks:17.0.0] C:\Users\Mithun\.gradle\caches\transforms-2\files-2.1\2b8a3547a6423f6fb15f19a78415dd89\play-services-tasks-17.0.0\AndroidManifest.xml:7:5-20
MERGED from [com.google.android.gms:play-services-basement:17.0.0] C:\Users\Mithun\.gradle\caches\transforms-2\files-2.1\bfab97caa09a1c39181f59d97551df5a\jetified-play-services-basement-17.0.0\AndroidManifest.xml:22:5-26:19
MERGED from [com.google.android.gms:play-services-basement:17.0.0] C:\Users\Mithun\.gradle\caches\transforms-2\files-2.1\bfab97caa09a1c39181f59d97551df5a\jetified-play-services-basement-17.0.0\AndroidManifest.xml:22:5-26:19
MERGED from [androidx.core:core:1.0.0] C:\Users\Mithun\.gradle\caches\transforms-2\files-2.1\246153fc0686d4ff78c8961ca91329b7\core-1.0.0\AndroidManifest.xml:22:5-89
MERGED from [androidx.core:core:1.0.0] C:\Users\Mithun\.gradle\caches\transforms-2\files-2.1\246153fc0686d4ff78c8961ca91329b7\core-1.0.0\AndroidManifest.xml:22:5-89
MERGED from [androidx.versionedparcelable:versionedparcelable:1.0.0] C:\Users\Mithun\.gradle\caches\transforms-2\files-2.1\c70a8bef3ed62675d42960780f476d6e\versionedparcelable-1.0.0\AndroidManifest.xml:22:5-23:19
MERGED from [androidx.versionedparcelable:versionedparcelable:1.0.0] C:\Users\Mithun\.gradle\caches\transforms-2\files-2.1\c70a8bef3ed62675d42960780f476d6e\versionedparcelable-1.0.0\AndroidManifest.xml:22:5-23:19
	android:label
		ADDED from F:\Android\WALTON PROJECT\waltonsms\app\src\main\AndroidManifest.xml:22:9-41
	android:appComponentFactory
		ADDED from F:\Android\WALTON PROJECT\waltonsms\app\src\main\AndroidManifest.xml:20:9-53
		REJECTED from [androidx.core:core:1.0.0] C:\Users\Mithun\.gradle\caches\transforms-2\files-2.1\246153fc0686d4ff78c8961ca91329b7\core-1.0.0\AndroidManifest.xml:22:18-86
	tools:ignore
		ADDED from F:\Android\WALTON PROJECT\waltonsms\app\src\main\AndroidManifest.xml:25:9-64
	android:icon
		ADDED from F:\Android\WALTON PROJECT\waltonsms\app\src\main\AndroidManifest.xml:21:9-45
	android:allowBackup
		ADDED from F:\Android\WALTON PROJECT\waltonsms\app\src\main\AndroidManifest.xml:19:9-35
	android:theme
		ADDED from F:\Android\WALTON PROJECT\waltonsms\app\src\main\AndroidManifest.xml:23:9-40
	tools:replace
		ADDED from F:\Android\WALTON PROJECT\waltonsms\app\src\main\AndroidManifest.xml:26:9-52
	android:usesCleartextTraffic
		ADDED from F:\Android\WALTON PROJECT\waltonsms\app\src\main\AndroidManifest.xml:24:9-44
	android:name
		ADDED from F:\Android\WALTON PROJECT\waltonsms\app\src\main\AndroidManifest.xml:18:9-65
activity#com.walton.productregistration.SelectActivity
ADDED from F:\Android\WALTON PROJECT\waltonsms\app\src\main\AndroidManifest.xml:27:9-29:63
	android:theme
		ADDED from F:\Android\WALTON PROJECT\waltonsms\app\src\main\AndroidManifest.xml:29:13-60
	android:name
		ADDED from F:\Android\WALTON PROJECT\waltonsms\app\src\main\AndroidManifest.xml:28:13-43
activity#com.walton.productregistration.MainActivity
ADDED from F:\Android\WALTON PROJECT\waltonsms\app\src\main\AndroidManifest.xml:30:9-34:63
	android:screenOrientation
		ADDED from F:\Android\WALTON PROJECT\waltonsms\app\src\main\AndroidManifest.xml:33:13-49
	android:label
		ADDED from F:\Android\WALTON PROJECT\waltonsms\app\src\main\AndroidManifest.xml:32:13-45
	android:theme
		ADDED from F:\Android\WALTON PROJECT\waltonsms\app\src\main\AndroidManifest.xml:34:13-60
	android:name
		ADDED from F:\Android\WALTON PROJECT\waltonsms\app\src\main\AndroidManifest.xml:31:13-41
activity#com.walton.productregistration.CollectionEntryActivity
ADDED from F:\Android\WALTON PROJECT\waltonsms\app\src\main\AndroidManifest.xml:35:9-38:57
	android:windowSoftInputMode
		ADDED from F:\Android\WALTON PROJECT\waltonsms\app\src\main\AndroidManifest.xml:38:13-54
	android:theme
		ADDED from F:\Android\WALTON PROJECT\waltonsms\app\src\main\AndroidManifest.xml:37:13-60
	android:name
		ADDED from F:\Android\WALTON PROJECT\waltonsms\app\src\main\AndroidManifest.xml:36:13-52
activity#com.walton.productregistration.ScannedBarcodeActivity
ADDED from F:\Android\WALTON PROJECT\waltonsms\app\src\main\AndroidManifest.xml:39:9-41:48
	android:theme
		ADDED from F:\Android\WALTON PROJECT\waltonsms\app\src\main\AndroidManifest.xml:41:13-45
	android:name
		ADDED from F:\Android\WALTON PROJECT\waltonsms\app\src\main\AndroidManifest.xml:40:13-51
activity#com.walton.productregistration.LoginActivity
ADDED from F:\Android\WALTON PROJECT\waltonsms\app\src\main\AndroidManifest.xml:42:9-51:20
	android:windowSoftInputMode
		ADDED from F:\Android\WALTON PROJECT\waltonsms\app\src\main\AndroidManifest.xml:45:13-54
	android:theme
		ADDED from F:\Android\WALTON PROJECT\waltonsms\app\src\main\AndroidManifest.xml:44:13-60
	android:name
		ADDED from F:\Android\WALTON PROJECT\waltonsms\app\src\main\AndroidManifest.xml:43:13-42
intent-filter#action:name:android.intent.action.MAIN+category:name:android.intent.category.LAUNCHER
ADDED from F:\Android\WALTON PROJECT\waltonsms\app\src\main\AndroidManifest.xml:46:13-50:29
action#android.intent.action.MAIN
ADDED from F:\Android\WALTON PROJECT\waltonsms\app\src\main\AndroidManifest.xml:47:17-69
	android:name
		ADDED from F:\Android\WALTON PROJECT\waltonsms\app\src\main\AndroidManifest.xml:47:25-66
category#android.intent.category.LAUNCHER
ADDED from F:\Android\WALTON PROJECT\waltonsms\app\src\main\AndroidManifest.xml:49:17-77
	android:name
		ADDED from F:\Android\WALTON PROJECT\waltonsms\app\src\main\AndroidManifest.xml:49:27-74
provider#androidx.core.content.FileProvider
ADDED from F:\Android\WALTON PROJECT\waltonsms\app\src\main\AndroidManifest.xml:53:9-61:20
	android:grantUriPermissions
		ADDED from F:\Android\WALTON PROJECT\waltonsms\app\src\main\AndroidManifest.xml:57:13-47
	android:authorities
		ADDED from F:\Android\WALTON PROJECT\waltonsms\app\src\main\AndroidManifest.xml:55:13-78
	android:exported
		ADDED from F:\Android\WALTON PROJECT\waltonsms\app\src\main\AndroidManifest.xml:56:13-37
	android:name
		ADDED from F:\Android\WALTON PROJECT\waltonsms\app\src\main\AndroidManifest.xml:54:13-62
meta-data#android.support.FILE_PROVIDER_PATHS
ADDED from F:\Android\WALTON PROJECT\waltonsms\app\src\main\AndroidManifest.xml:58:13-60:58
	android:resource
		ADDED from F:\Android\WALTON PROJECT\waltonsms\app\src\main\AndroidManifest.xml:60:17-55
	android:name
		ADDED from F:\Android\WALTON PROJECT\waltonsms\app\src\main\AndroidManifest.xml:59:17-67
uses-sdk
INJECTED from F:\Android\WALTON PROJECT\waltonsms\app\src\main\AndroidManifest.xml reason: use-sdk injection requested
INJECTED from F:\Android\WALTON PROJECT\waltonsms\app\src\main\AndroidManifest.xml
INJECTED from F:\Android\WALTON PROJECT\waltonsms\app\src\main\AndroidManifest.xml
MERGED from [com.karumi:dexter:5.0.0] C:\Users\Mithun\.gradle\caches\transforms-2\files-2.1\a4abd16530d966f7b18d9f896bc33d5b\jetified-dexter-5.0.0\AndroidManifest.xml:22:5-24:41
MERGED from [com.karumi:dexter:5.0.0] C:\Users\Mithun\.gradle\caches\transforms-2\files-2.1\a4abd16530d966f7b18d9f896bc33d5b\jetified-dexter-5.0.0\AndroidManifest.xml:22:5-24:41
MERGED from [com.google.android.material:material:1.0.0] C:\Users\Mithun\.gradle\caches\transforms-2\files-2.1\c7eb9cd3508ac3959447c14fd76c9fb9\material-1.0.0\AndroidManifest.xml:20:5-44
MERGED from [com.google.android.material:material:1.0.0] C:\Users\Mithun\.gradle\caches\transforms-2\files-2.1\c7eb9cd3508ac3959447c14fd76c9fb9\material-1.0.0\AndroidManifest.xml:20:5-44
MERGED from [androidx.appcompat:appcompat:1.0.0] C:\Users\Mithun\.gradle\caches\transforms-2\files-2.1\7df26908078c74ff4eeaf46e7b6b476c\appcompat-1.0.0\AndroidManifest.xml:20:5-44
MERGED from [androidx.appcompat:appcompat:1.0.0] C:\Users\Mithun\.gradle\caches\transforms-2\files-2.1\7df26908078c74ff4eeaf46e7b6b476c\appcompat-1.0.0\AndroidManifest.xml:20:5-44
MERGED from [androidx.constraintlayout:constraintlayout:1.1.3] C:\Users\Mithun\.gradle\caches\transforms-2\files-2.1\3ec6fa8458ddbe732478393a9f9e6c77\constraintlayout-1.1.3\AndroidManifest.xml:5:5-7:41
MERGED from [androidx.constraintlayout:constraintlayout:1.1.3] C:\Users\Mithun\.gradle\caches\transforms-2\files-2.1\3ec6fa8458ddbe732478393a9f9e6c77\constraintlayout-1.1.3\AndroidManifest.xml:5:5-7:41
MERGED from [androidx.cardview:cardview:1.0.0] C:\Users\Mithun\.gradle\caches\transforms-2\files-2.1\4fe44ae24daa7cfa2dd483a5d3b65a2f\cardview-1.0.0\AndroidManifest.xml:20:5-44
MERGED from [androidx.cardview:cardview:1.0.0] C:\Users\Mithun\.gradle\caches\transforms-2\files-2.1\4fe44ae24daa7cfa2dd483a5d3b65a2f\cardview-1.0.0\AndroidManifest.xml:20:5-44
MERGED from [androidx.legacy:legacy-support-v4:1.0.0] C:\Users\Mithun\.gradle\caches\transforms-2\files-2.1\062eb74c1a6fe650432564db4113c6b5\legacy-support-v4-1.0.0\AndroidManifest.xml:20:5-44
MERGED from [androidx.legacy:legacy-support-v4:1.0.0] C:\Users\Mithun\.gradle\caches\transforms-2\files-2.1\062eb74c1a6fe650432564db4113c6b5\legacy-support-v4-1.0.0\AndroidManifest.xml:20:5-44
MERGED from [io.reactivex.rxjava2:rxandroid:2.1.0] C:\Users\Mithun\.gradle\caches\transforms-2\files-2.1\c5a1b782cabb9bbf3527865757a34b50\rxandroid-2.1.0\AndroidManifest.xml:18:5-43
MERGED from [io.reactivex.rxjava2:rxandroid:2.1.0] C:\Users\Mithun\.gradle\caches\transforms-2\files-2.1\c5a1b782cabb9bbf3527865757a34b50\rxandroid-2.1.0\AndroidManifest.xml:18:5-43
MERGED from [com.google.android.gms:play-services-auth:16.0.1] C:\Users\Mithun\.gradle\caches\transforms-2\files-2.1\0d372dc0df938af8b1811fd3551e1578\jetified-play-services-auth-16.0.1\AndroidManifest.xml:20:5-44
MERGED from [com.google.android.gms:play-services-auth:16.0.1] C:\Users\Mithun\.gradle\caches\transforms-2\files-2.1\0d372dc0df938af8b1811fd3551e1578\jetified-play-services-auth-16.0.1\AndroidManifest.xml:20:5-44
MERGED from [com.google.android.gms:play-services-vision:19.0.0] C:\Users\Mithun\.gradle\caches\transforms-2\files-2.1\3cee36f396115dbe80794302ed809348\play-services-vision-19.0.0\AndroidManifest.xml:5:5-44
MERGED from [com.google.android.gms:play-services-vision:19.0.0] C:\Users\Mithun\.gradle\caches\transforms-2\files-2.1\3cee36f396115dbe80794302ed809348\play-services-vision-19.0.0\AndroidManifest.xml:5:5-44
MERGED from [com.google.android.gms:play-services-auth-api-phone:16.0.0] C:\Users\Mithun\.gradle\caches\transforms-2\files-2.1\dc1726ffde18ef178e4135b68a19e71e\jetified-play-services-auth-api-phone-16.0.0\AndroidManifest.xml:5:5-44
MERGED from [com.google.android.gms:play-services-auth-api-phone:16.0.0] C:\Users\Mithun\.gradle\caches\transforms-2\files-2.1\dc1726ffde18ef178e4135b68a19e71e\jetified-play-services-auth-api-phone-16.0.0\AndroidManifest.xml:5:5-44
MERGED from [com.google.android.gms:play-services-auth-base:16.0.0] C:\Users\Mithun\.gradle\caches\transforms-2\files-2.1\02054797e6985cbc8fdc79c98fbe3cef\jetified-play-services-auth-base-16.0.0\AndroidManifest.xml:5:5-44
MERGED from [com.google.android.gms:play-services-auth-base:16.0.0] C:\Users\Mithun\.gradle\caches\transforms-2\files-2.1\02054797e6985cbc8fdc79c98fbe3cef\jetified-play-services-auth-base-16.0.0\AndroidManifest.xml:5:5-44
MERGED from [com.google.android.gms:play-services-vision-common:19.0.0] C:\Users\Mithun\.gradle\caches\transforms-2\files-2.1\3a06dcdb95a65fffbd805ec2d1292acf\play-services-vision-common-19.0.0\AndroidManifest.xml:5:5-44
MERGED from [com.google.android.gms:play-services-vision-common:19.0.0] C:\Users\Mithun\.gradle\caches\transforms-2\files-2.1\3a06dcdb95a65fffbd805ec2d1292acf\play-services-vision-common-19.0.0\AndroidManifest.xml:5:5-44
MERGED from [com.google.android.gms:play-services-clearcut:17.0.0] C:\Users\Mithun\.gradle\caches\transforms-2\files-2.1\1e0b3fde68e1605153cab3775f0b4184\play-services-clearcut-17.0.0\AndroidManifest.xml:20:5-44
MERGED from [com.google.android.gms:play-services-clearcut:17.0.0] C:\Users\Mithun\.gradle\caches\transforms-2\files-2.1\1e0b3fde68e1605153cab3775f0b4184\play-services-clearcut-17.0.0\AndroidManifest.xml:20:5-44
MERGED from [com.google.android.gms:play-services-flags:17.0.0] C:\Users\Mithun\.gradle\caches\transforms-2\files-2.1\d15d843afc1e2bc6fd4b5f463b510e1d\play-services-flags-17.0.0\AndroidManifest.xml:20:5-44
MERGED from [com.google.android.gms:play-services-flags:17.0.0] C:\Users\Mithun\.gradle\caches\transforms-2\files-2.1\d15d843afc1e2bc6fd4b5f463b510e1d\play-services-flags-17.0.0\AndroidManifest.xml:20:5-44
MERGED from [com.google.android.gms:play-services-phenotype:17.0.0] C:\Users\Mithun\.gradle\caches\transforms-2\files-2.1\dcda69aba665e4ef88212d91fa49c817\play-services-phenotype-17.0.0\AndroidManifest.xml:20:5-44
MERGED from [com.google.android.gms:play-services-phenotype:17.0.0] C:\Users\Mithun\.gradle\caches\transforms-2\files-2.1\dcda69aba665e4ef88212d91fa49c817\play-services-phenotype-17.0.0\AndroidManifest.xml:20:5-44
MERGED from [com.google.android.gms:play-services-base:17.0.0] C:\Users\Mithun\.gradle\caches\transforms-2\files-2.1\77c2fc448e2bd0738fd67dce062b1efd\play-services-base-17.0.0\AndroidManifest.xml:20:5-44
MERGED from [com.google.android.gms:play-services-base:17.0.0] C:\Users\Mithun\.gradle\caches\transforms-2\files-2.1\77c2fc448e2bd0738fd67dce062b1efd\play-services-base-17.0.0\AndroidManifest.xml:20:5-44
MERGED from [com.google.android.gms:play-services-tasks:17.0.0] C:\Users\Mithun\.gradle\caches\transforms-2\files-2.1\2b8a3547a6423f6fb15f19a78415dd89\play-services-tasks-17.0.0\AndroidManifest.xml:5:5-44
MERGED from [com.google.android.gms:play-services-tasks:17.0.0] C:\Users\Mithun\.gradle\caches\transforms-2\files-2.1\2b8a3547a6423f6fb15f19a78415dd89\play-services-tasks-17.0.0\AndroidManifest.xml:5:5-44
MERGED from [com.google.android.gms:play-services-basement:17.0.0] C:\Users\Mithun\.gradle\caches\transforms-2\files-2.1\bfab97caa09a1c39181f59d97551df5a\jetified-play-services-basement-17.0.0\AndroidManifest.xml:20:5-44
MERGED from [com.google.android.gms:play-services-basement:17.0.0] C:\Users\Mithun\.gradle\caches\transforms-2\files-2.1\bfab97caa09a1c39181f59d97551df5a\jetified-play-services-basement-17.0.0\AndroidManifest.xml:20:5-44
MERGED from [androidx.fragment:fragment:1.0.0] C:\Users\Mithun\.gradle\caches\transforms-2\files-2.1\4f680f5cab482b7966fa9c805ac0cb70\fragment-1.0.0\AndroidManifest.xml:20:5-44
MERGED from [androidx.fragment:fragment:1.0.0] C:\Users\Mithun\.gradle\caches\transforms-2\files-2.1\4f680f5cab482b7966fa9c805ac0cb70\fragment-1.0.0\AndroidManifest.xml:20:5-44
MERGED from [androidx.vectordrawable:vectordrawable-animated:1.0.0] C:\Users\Mithun\.gradle\caches\transforms-2\files-2.1\61965e5c06bda9445c13760f9d9ef779\vectordrawable-animated-1.0.0\AndroidManifest.xml:20:5-44
MERGED from [androidx.vectordrawable:vectordrawable-animated:1.0.0] C:\Users\Mithun\.gradle\caches\transforms-2\files-2.1\61965e5c06bda9445c13760f9d9ef779\vectordrawable-animated-1.0.0\AndroidManifest.xml:20:5-44
MERGED from [androidx.recyclerview:recyclerview:1.0.0] C:\Users\Mithun\.gradle\caches\transforms-2\files-2.1\ceb81553a8d4d1147c847656f2ca2121\recyclerview-1.0.0\AndroidManifest.xml:20:5-44
MERGED from [androidx.recyclerview:recyclerview:1.0.0] C:\Users\Mithun\.gradle\caches\transforms-2\files-2.1\ceb81553a8d4d1147c847656f2ca2121\recyclerview-1.0.0\AndroidManifest.xml:20:5-44
MERGED from [androidx.legacy:legacy-support-core-ui:1.0.0] C:\Users\Mithun\.gradle\caches\transforms-2\files-2.1\ec593f8d91037f6ef1bbcd6a177afa1c\legacy-support-core-ui-1.0.0\AndroidManifest.xml:20:5-44
MERGED from [androidx.legacy:legacy-support-core-ui:1.0.0] C:\Users\Mithun\.gradle\caches\transforms-2\files-2.1\ec593f8d91037f6ef1bbcd6a177afa1c\legacy-support-core-ui-1.0.0\AndroidManifest.xml:20:5-44
MERGED from [androidx.legacy:legacy-support-core-utils:1.0.0] C:\Users\Mithun\.gradle\caches\transforms-2\files-2.1\4f8b5527496d67480951cc322460db7f\legacy-support-core-utils-1.0.0\AndroidManifest.xml:20:5-44
MERGED from [androidx.legacy:legacy-support-core-utils:1.0.0] C:\Users\Mithun\.gradle\caches\transforms-2\files-2.1\4f8b5527496d67480951cc322460db7f\legacy-support-core-utils-1.0.0\AndroidManifest.xml:20:5-44
MERGED from [androidx.vectordrawable:vectordrawable:1.0.0] C:\Users\Mithun\.gradle\caches\transforms-2\files-2.1\fb64895045b937c99805be897a2a6961\vectordrawable-1.0.0\AndroidManifest.xml:20:5-44
MERGED from [androidx.vectordrawable:vectordrawable:1.0.0] C:\Users\Mithun\.gradle\caches\transforms-2\files-2.1\fb64895045b937c99805be897a2a6961\vectordrawable-1.0.0\AndroidManifest.xml:20:5-44
MERGED from [androidx.transition:transition:1.0.0] C:\Users\Mithun\.gradle\caches\transforms-2\files-2.1\d2cae29ea156ecc28d8f5099dc624ed2\transition-1.0.0\AndroidManifest.xml:20:5-44
MERGED from [androidx.transition:transition:1.0.0] C:\Users\Mithun\.gradle\caches\transforms-2\files-2.1\d2cae29ea156ecc28d8f5099dc624ed2\transition-1.0.0\AndroidManifest.xml:20:5-44
MERGED from [androidx.media:media:1.0.0] C:\Users\Mithun\.gradle\caches\transforms-2\files-2.1\767612e54049c1347a891905a7e9d5e4\media-1.0.0\AndroidManifest.xml:20:5-44
MERGED from [androidx.media:media:1.0.0] C:\Users\Mithun\.gradle\caches\transforms-2\files-2.1\767612e54049c1347a891905a7e9d5e4\media-1.0.0\AndroidManifest.xml:20:5-44
MERGED from [androidx.loader:loader:1.0.0] C:\Users\Mithun\.gradle\caches\transforms-2\files-2.1\5276819c062a92c029464122749254f1\loader-1.0.0\AndroidManifest.xml:20:5-44
MERGED from [androidx.loader:loader:1.0.0] C:\Users\Mithun\.gradle\caches\transforms-2\files-2.1\5276819c062a92c029464122749254f1\loader-1.0.0\AndroidManifest.xml:20:5-44
MERGED from [androidx.viewpager:viewpager:1.0.0] C:\Users\Mithun\.gradle\caches\transforms-2\files-2.1\4932f7e67b26f042b51fa62f1aa4816d\viewpager-1.0.0\AndroidManifest.xml:20:5-44
MERGED from [androidx.viewpager:viewpager:1.0.0] C:\Users\Mithun\.gradle\caches\transforms-2\files-2.1\4932f7e67b26f042b51fa62f1aa4816d\viewpager-1.0.0\AndroidManifest.xml:20:5-44
MERGED from [androidx.coordinatorlayout:coordinatorlayout:1.0.0] C:\Users\Mithun\.gradle\caches\transforms-2\files-2.1\8849109129fcb2f39779166fb64480b1\coordinatorlayout-1.0.0\AndroidManifest.xml:20:5-44
MERGED from [androidx.coordinatorlayout:coordinatorlayout:1.0.0] C:\Users\Mithun\.gradle\caches\transforms-2\files-2.1\8849109129fcb2f39779166fb64480b1\coordinatorlayout-1.0.0\AndroidManifest.xml:20:5-44
MERGED from [androidx.drawerlayout:drawerlayout:1.0.0] C:\Users\Mithun\.gradle\caches\transforms-2\files-2.1\00bc847ce5b9e3ce7b40d465bffbf9e9\drawerlayout-1.0.0\AndroidManifest.xml:20:5-44
MERGED from [androidx.drawerlayout:drawerlayout:1.0.0] C:\Users\Mithun\.gradle\caches\transforms-2\files-2.1\00bc847ce5b9e3ce7b40d465bffbf9e9\drawerlayout-1.0.0\AndroidManifest.xml:20:5-44
MERGED from [androidx.slidingpanelayout:slidingpanelayout:1.0.0] C:\Users\Mithun\.gradle\caches\transforms-2\files-2.1\5ad830c9e1047f79e3f0f7e9e42ab8ab\slidingpanelayout-1.0.0\AndroidManifest.xml:20:5-44
MERGED from [androidx.slidingpanelayout:slidingpanelayout:1.0.0] C:\Users\Mithun\.gradle\caches\transforms-2\files-2.1\5ad830c9e1047f79e3f0f7e9e42ab8ab\slidingpanelayout-1.0.0\AndroidManifest.xml:20:5-44
MERGED from [androidx.customview:customview:1.0.0] C:\Users\Mithun\.gradle\caches\transforms-2\files-2.1\a3c457ded457b98b207b4f227d629399\customview-1.0.0\AndroidManifest.xml:20:5-44
MERGED from [androidx.customview:customview:1.0.0] C:\Users\Mithun\.gradle\caches\transforms-2\files-2.1\a3c457ded457b98b207b4f227d629399\customview-1.0.0\AndroidManifest.xml:20:5-44
MERGED from [androidx.swiperefreshlayout:swiperefreshlayout:1.0.0] C:\Users\Mithun\.gradle\caches\transforms-2\files-2.1\3d4a3c67e39fa8d6d0c0f126c28b81d8\swiperefreshlayout-1.0.0\AndroidManifest.xml:20:5-44
MERGED from [androidx.swiperefreshlayout:swiperefreshlayout:1.0.0] C:\Users\Mithun\.gradle\caches\transforms-2\files-2.1\3d4a3c67e39fa8d6d0c0f126c28b81d8\swiperefreshlayout-1.0.0\AndroidManifest.xml:20:5-44
MERGED from [androidx.asynclayoutinflater:asynclayoutinflater:1.0.0] C:\Users\Mithun\.gradle\caches\transforms-2\files-2.1\82b148795609bbbaf8e825fc2ff2a6bf\asynclayoutinflater-1.0.0\AndroidManifest.xml:20:5-44
MERGED from [androidx.asynclayoutinflater:asynclayoutinflater:1.0.0] C:\Users\Mithun\.gradle\caches\transforms-2\files-2.1\82b148795609bbbaf8e825fc2ff2a6bf\asynclayoutinflater-1.0.0\AndroidManifest.xml:20:5-44
MERGED from [androidx.core:core:1.0.0] C:\Users\Mithun\.gradle\caches\transforms-2\files-2.1\246153fc0686d4ff78c8961ca91329b7\core-1.0.0\AndroidManifest.xml:20:5-44
MERGED from [androidx.core:core:1.0.0] C:\Users\Mithun\.gradle\caches\transforms-2\files-2.1\246153fc0686d4ff78c8961ca91329b7\core-1.0.0\AndroidManifest.xml:20:5-44
MERGED from [androidx.versionedparcelable:versionedparcelable:1.0.0] C:\Users\Mithun\.gradle\caches\transforms-2\files-2.1\c70a8bef3ed62675d42960780f476d6e\versionedparcelable-1.0.0\AndroidManifest.xml:20:5-44
MERGED from [androidx.versionedparcelable:versionedparcelable:1.0.0] C:\Users\Mithun\.gradle\caches\transforms-2\files-2.1\c70a8bef3ed62675d42960780f476d6e\versionedparcelable-1.0.0\AndroidManifest.xml:20:5-44
MERGED from [androidx.cursoradapter:cursoradapter:1.0.0] C:\Users\Mithun\.gradle\caches\transforms-2\files-2.1\fb2fbe77879a57ea0c5dfd6fe59ba874\cursoradapter-1.0.0\AndroidManifest.xml:20:5-44
MERGED from [androidx.cursoradapter:cursoradapter:1.0.0] C:\Users\Mithun\.gradle\caches\transforms-2\files-2.1\fb2fbe77879a57ea0c5dfd6fe59ba874\cursoradapter-1.0.0\AndroidManifest.xml:20:5-44
MERGED from [androidx.lifecycle:lifecycle-runtime:2.0.0] C:\Users\Mithun\.gradle\caches\transforms-2\files-2.1\4c7e5b6d46acfb24c04b3a473c53b419\lifecycle-runtime-2.0.0\AndroidManifest.xml:20:5-44
MERGED from [androidx.lifecycle:lifecycle-runtime:2.0.0] C:\Users\Mithun\.gradle\caches\transforms-2\files-2.1\4c7e5b6d46acfb24c04b3a473c53b419\lifecycle-runtime-2.0.0\AndroidManifest.xml:20:5-44
MERGED from [androidx.documentfile:documentfile:1.0.0] C:\Users\Mithun\.gradle\caches\transforms-2\files-2.1\f582580d3eb247a74d915a27810a4674\documentfile-1.0.0\AndroidManifest.xml:20:5-44
MERGED from [androidx.documentfile:documentfile:1.0.0] C:\Users\Mithun\.gradle\caches\transforms-2\files-2.1\f582580d3eb247a74d915a27810a4674\documentfile-1.0.0\AndroidManifest.xml:20:5-44
MERGED from [androidx.localbroadcastmanager:localbroadcastmanager:1.0.0] C:\Users\Mithun\.gradle\caches\transforms-2\files-2.1\c75155371656c04dff3a027cdeb13e8a\localbroadcastmanager-1.0.0\AndroidManifest.xml:20:5-44
MERGED from [androidx.localbroadcastmanager:localbroadcastmanager:1.0.0] C:\Users\Mithun\.gradle\caches\transforms-2\files-2.1\c75155371656c04dff3a027cdeb13e8a\localbroadcastmanager-1.0.0\AndroidManifest.xml:20:5-44
MERGED from [androidx.print:print:1.0.0] C:\Users\Mithun\.gradle\caches\transforms-2\files-2.1\53b4a4cf87c0ff501a8c414cec884555\print-1.0.0\AndroidManifest.xml:20:5-44
MERGED from [androidx.print:print:1.0.0] C:\Users\Mithun\.gradle\caches\transforms-2\files-2.1\53b4a4cf87c0ff501a8c414cec884555\print-1.0.0\AndroidManifest.xml:20:5-44
MERGED from [androidx.lifecycle:lifecycle-viewmodel:2.0.0] C:\Users\Mithun\.gradle\caches\transforms-2\files-2.1\94d1bdd9d3f5e77b2c2deb76d0ecef77\lifecycle-viewmodel-2.0.0\AndroidManifest.xml:20:5-44
MERGED from [androidx.lifecycle:lifecycle-viewmodel:2.0.0] C:\Users\Mithun\.gradle\caches\transforms-2\files-2.1\94d1bdd9d3f5e77b2c2deb76d0ecef77\lifecycle-viewmodel-2.0.0\AndroidManifest.xml:20:5-44
MERGED from [androidx.interpolator:interpolator:1.0.0] C:\Users\Mithun\.gradle\caches\transforms-2\files-2.1\3a992d8307f21a8f15eb649383ba6a6a\interpolator-1.0.0\AndroidManifest.xml:20:5-44
MERGED from [androidx.interpolator:interpolator:1.0.0] C:\Users\Mithun\.gradle\caches\transforms-2\files-2.1\3a992d8307f21a8f15eb649383ba6a6a\interpolator-1.0.0\AndroidManifest.xml:20:5-44
MERGED from [androidx.lifecycle:lifecycle-livedata:2.0.0] C:\Users\Mithun\.gradle\caches\transforms-2\files-2.1\63647da4654da12a6f2785cfbbad8123\lifecycle-livedata-2.0.0\AndroidManifest.xml:20:5-44
MERGED from [androidx.lifecycle:lifecycle-livedata:2.0.0] C:\Users\Mithun\.gradle\caches\transforms-2\files-2.1\63647da4654da12a6f2785cfbbad8123\lifecycle-livedata-2.0.0\AndroidManifest.xml:20:5-44
MERGED from [androidx.lifecycle:lifecycle-livedata-core:2.0.0] C:\Users\Mithun\.gradle\caches\transforms-2\files-2.1\733fc1d306cee2c05d3e1fb0b7527020\lifecycle-livedata-core-2.0.0\AndroidManifest.xml:20:5-44
MERGED from [androidx.lifecycle:lifecycle-livedata-core:2.0.0] C:\Users\Mithun\.gradle\caches\transforms-2\files-2.1\733fc1d306cee2c05d3e1fb0b7527020\lifecycle-livedata-core-2.0.0\AndroidManifest.xml:20:5-44
MERGED from [androidx.arch.core:core-runtime:2.0.0] C:\Users\Mithun\.gradle\caches\transforms-2\files-2.1\fdd65d8b6066fd289a68b42931dc03a2\core-runtime-2.0.0\AndroidManifest.xml:20:5-44
MERGED from [androidx.arch.core:core-runtime:2.0.0] C:\Users\Mithun\.gradle\caches\transforms-2\files-2.1\fdd65d8b6066fd289a68b42931dc03a2\core-runtime-2.0.0\AndroidManifest.xml:20:5-44
INJECTED from F:\Android\WALTON PROJECT\waltonsms\app\src\main\AndroidManifest.xml
INJECTED from F:\Android\WALTON PROJECT\waltonsms\app\src\main\AndroidManifest.xml
	android:targetSdkVersion
		INJECTED from F:\Android\WALTON PROJECT\waltonsms\app\src\main\AndroidManifest.xml
		ADDED from F:\Android\WALTON PROJECT\waltonsms\app\src\main\AndroidManifest.xml
		INJECTED from F:\Android\WALTON PROJECT\waltonsms\app\src\main\AndroidManifest.xml
	android:minSdkVersion
		INJECTED from F:\Android\WALTON PROJECT\waltonsms\app\src\main\AndroidManifest.xml
		ADDED from F:\Android\WALTON PROJECT\waltonsms\app\src\main\AndroidManifest.xml
		INJECTED from F:\Android\WALTON PROJECT\waltonsms\app\src\main\AndroidManifest.xml
activity#com.karumi.dexter.DexterActivity
ADDED from [com.karumi:dexter:5.0.0] C:\Users\Mithun\.gradle\caches\transforms-2\files-2.1\a4abd16530d966f7b18d9f896bc33d5b\jetified-dexter-5.0.0\AndroidManifest.xml:27:9-29:72
	android:theme
		ADDED from [com.karumi:dexter:5.0.0] C:\Users\Mithun\.gradle\caches\transforms-2\files-2.1\a4abd16530d966f7b18d9f896bc33d5b\jetified-dexter-5.0.0\AndroidManifest.xml:29:13-69
	android:name
		ADDED from [com.karumi:dexter:5.0.0] C:\Users\Mithun\.gradle\caches\transforms-2\files-2.1\a4abd16530d966f7b18d9f896bc33d5b\jetified-dexter-5.0.0\AndroidManifest.xml:28:13-60
activity#com.google.android.gms.auth.api.signin.internal.SignInHubActivity
ADDED from [com.google.android.gms:play-services-auth:16.0.1] C:\Users\Mithun\.gradle\caches\transforms-2\files-2.1\0d372dc0df938af8b1811fd3551e1578\jetified-play-services-auth-16.0.1\AndroidManifest.xml:23:9-27:75
	android:excludeFromRecents
		ADDED from [com.google.android.gms:play-services-auth:16.0.1] C:\Users\Mithun\.gradle\caches\transforms-2\files-2.1\0d372dc0df938af8b1811fd3551e1578\jetified-play-services-auth-16.0.1\AndroidManifest.xml:25:13-46
	android:exported
		ADDED from [com.google.android.gms:play-services-auth:16.0.1] C:\Users\Mithun\.gradle\caches\transforms-2\files-2.1\0d372dc0df938af8b1811fd3551e1578\jetified-play-services-auth-16.0.1\AndroidManifest.xml:26:13-37
	android:theme
		ADDED from [com.google.android.gms:play-services-auth:16.0.1] C:\Users\Mithun\.gradle\caches\transforms-2\files-2.1\0d372dc0df938af8b1811fd3551e1578\jetified-play-services-auth-16.0.1\AndroidManifest.xml:27:13-72
	android:name
		ADDED from [com.google.android.gms:play-services-auth:16.0.1] C:\Users\Mithun\.gradle\caches\transforms-2\files-2.1\0d372dc0df938af8b1811fd3551e1578\jetified-play-services-auth-16.0.1\AndroidManifest.xml:24:13-93
service#com.google.android.gms.auth.api.signin.RevocationBoundService
ADDED from [com.google.android.gms:play-services-auth:16.0.1] C:\Users\Mithun\.gradle\caches\transforms-2\files-2.1\0d372dc0df938af8b1811fd3551e1578\jetified-play-services-auth-16.0.1\AndroidManifest.xml:33:9-36:110
	android:exported
		ADDED from [com.google.android.gms:play-services-auth:16.0.1] C:\Users\Mithun\.gradle\caches\transforms-2\files-2.1\0d372dc0df938af8b1811fd3551e1578\jetified-play-services-auth-16.0.1\AndroidManifest.xml:35:13-36
	android:permission
		ADDED from [com.google.android.gms:play-services-auth:16.0.1] C:\Users\Mithun\.gradle\caches\transforms-2\files-2.1\0d372dc0df938af8b1811fd3551e1578\jetified-play-services-auth-16.0.1\AndroidManifest.xml:36:13-107
	android:name
		ADDED from [com.google.android.gms:play-services-auth:16.0.1] C:\Users\Mithun\.gradle\caches\transforms-2\files-2.1\0d372dc0df938af8b1811fd3551e1578\jetified-play-services-auth-16.0.1\AndroidManifest.xml:34:13-89
activity#com.google.android.gms.common.api.GoogleApiActivity
ADDED from [com.google.android.gms:play-services-base:17.0.0] C:\Users\Mithun\.gradle\caches\transforms-2\files-2.1\77c2fc448e2bd0738fd67dce062b1efd\play-services-base-17.0.0\AndroidManifest.xml:23:9-26:75
	android:exported
		ADDED from [com.google.android.gms:play-services-base:17.0.0] C:\Users\Mithun\.gradle\caches\transforms-2\files-2.1\77c2fc448e2bd0738fd67dce062b1efd\play-services-base-17.0.0\AndroidManifest.xml:25:13-37
	android:theme
		ADDED from [com.google.android.gms:play-services-base:17.0.0] C:\Users\Mithun\.gradle\caches\transforms-2\files-2.1\77c2fc448e2bd0738fd67dce062b1efd\play-services-base-17.0.0\AndroidManifest.xml:26:13-72
	android:name
		ADDED from [com.google.android.gms:play-services-base:17.0.0] C:\Users\Mithun\.gradle\caches\transforms-2\files-2.1\77c2fc448e2bd0738fd67dce062b1efd\play-services-base-17.0.0\AndroidManifest.xml:24:13-79
meta-data#com.google.android.gms.version
ADDED from [com.google.android.gms:play-services-basement:17.0.0] C:\Users\Mithun\.gradle\caches\transforms-2\files-2.1\bfab97caa09a1c39181f59d97551df5a\jetified-play-services-basement-17.0.0\AndroidManifest.xml:23:9-25:69
	android:value
		ADDED from [com.google.android.gms:play-services-basement:17.0.0] C:\Users\Mithun\.gradle\caches\transforms-2\files-2.1\bfab97caa09a1c39181f59d97551df5a\jetified-play-services-basement-17.0.0\AndroidManifest.xml:25:13-66
	android:name
		ADDED from [com.google.android.gms:play-services-basement:17.0.0] C:\Users\Mithun\.gradle\caches\transforms-2\files-2.1\bfab97caa09a1c39181f59d97551df5a\jetified-play-services-basement-17.0.0\AndroidManifest.xml:24:13-58
